{
  "transactions": [
    {
      "hash": null,
      "transactionType": "CALL",
      "contractName": null,
      "contractAddress": "0x0DDbfC5c0953B0401d1C72e3149a00cb049835DC",
      "function": null,
      "arguments": null,
      "transaction": {
        "type": "0x02",
        "from": "0x85752248d8cca2d9321f0278fc785738e1236ce4",
        "to": "0x0ddbfc5c0953b0401d1c72e3149a00cb049835dc",
        "gas": "0xf87a",
        "value": "0x0",
        "data": "0xd710442a000000000000000000000000000000000000000000000000000000000000006100000000000000000000000000000000000000000000000000000000000000000000000000000000000000000000000000000000000000000000000000000012",
        "nonce": "0x6ac",
        "accessList": []
      },
      "additionalContracts": [],
      "isFixedGasLimit": false
    },
    {
      "hash": null,
      "transactionType": "CALL",
      "contractName": null,
      "contractAddress": "0x18C26dC79B26F37302411D08E98fe6ce973Df874",
      "function": null,
      "arguments": null,
      "transaction": {
        "type": "0x02",
        "from": "0x85752248d8cca2d9321f0278fc785738e1236ce4",
        "to": "0x18c26dc79b26f37302411d08e98fe6ce973df874",
        "gas": "0x2155d",
        "value": "0x0",
        "data": "0xee39043c0000000000000000000000000000000000000000000000000000000000000061000000000000000000000000000000000000000000000000000000000000000000000000000000000000000000000000000000000000000bbb4ac46922490000",
        "nonce": "0x6ad",
        "accessList": []
      },
      "additionalContracts": [],
      "isFixedGasLimit": false
    },
    {
      "hash": null,
      "transactionType": "CALL",
      "contractName": null,
      "contractAddress": "0x0DDbfC5c0953B0401d1C72e3149a00cb049835DC",
      "function": null,
      "arguments": null,
      "transaction": {
        "type": "0x02",
        "from": "0x85752248d8cca2d9321f0278fc785738e1236ce4",
        "to": "0x0ddbfc5c0953b0401d1c72e3149a00cb049835dc",
        "gas": "0xf9b2",
        "value": "0x0",
        "data": "0xd710442a000000000000000000000000000000000000000000000000000000000000006100000000000000000000000057546f95163291b04588a2abdc1feb0fa215561a0000000000000000000000000000000000000000000000000000000000000012",
        "nonce": "0x6ae",
        "accessList": []
      },
      "additionalContracts": [],
      "isFixedGasLimit": false
    },
    {
      "hash": null,
      "transactionType": "CALL",
      "contractName": null,
      "contractAddress": "0x18C26dC79B26F37302411D08E98fe6ce973Df874",
      "function": null,
      "arguments": null,
      "transaction": {
        "type": "0x02",
        "from": "0x85752248d8cca2d9321f0278fc785738e1236ce4",
        "to": "0x18c26dc79b26f37302411d08e98fe6ce973df874",
        "gas": "0x2360b",
        "value": "0x0",
        "data": "0xee39043c000000000000000000000000000000000000000000000000000000000000006100000000000000000000000057546f95163291b04588a2abdc1feb0fa215561a0000000000000000000000000000000000000000000000000de0b6b3a7640000",
        "nonce": "0x6af",
        "accessList": []
      },
      "additionalContracts": [],
      "isFixedGasLimit": false
    }
  ],
  "receipts": [],
  "libraries": [],
  "pending": [],
  "returns": {},
  "timestamp": 1695077800,
  "chain": 421613,
  "multi": false,
  "commit": "c7ccaef"
}