{
  "transactions": [
    {
      "hash": null,
      "transactionType": "CALL",
      "contractName": null,
      "contractAddress": "0x8b72210866660cB4B8efF1fBDe3EA7217e4fF86A",
      "function": null,
      "arguments": null,
      "transaction": {
        "type": "0x02",
        "from": "0x85752248d8cca2d9321f0278fc785738e1236ce4",
        "to": "0x8b72210866660cb4b8eff1fbde3ea7217e4ff86a",
        "gas": "0xf825",
        "value": "0x0",
        "data": "0xd710442a000000000000000000000000000000000000000000000000000000000000000500000000000000000000000000000000000000000000000000000000000000000000000000000000000000000000000000000000000000000000000000000012",
        "nonce": "0x5af",
        "accessList": []
      },
      "additionalContracts": [],
      "isFixedGasLimit": false
    },
    {
      "hash": null,
      "transactionType": "CALL",
      "contractName": null,
      "contractAddress": "0x462b76B57e13A4070Ece9f5d21f6C0D2E19BbAf0",
      "function": null,
      "arguments": null,
      "transaction": {
        "type": "0x02",
        "from": "0x85752248d8cca2d9321f0278fc785738e1236ce4",
        "to": "0x462b76b57e13a4070ece9f5d21f6c0d2e19bbaf0",
        "gas": "0x2157b",
        "value": "0x0",
        "data": "0xee39043c0000000000000000000000000000000000000000000000000000000000000005000000000000000000000000000000000000000000000000000000000000000000000000000000000000000000000000000000000000006663f303de1e8d0000",
        "nonce": "0x5b0",
        "accessList": []
      },
      "additionalContracts": [],
      "isFixedGasLimit": false
    },
    {
      "hash": null,
      "transactionType": "CALL",
      "contractName": null,
      "contractAddress": "0x8b72210866660cB4B8efF1fBDe3EA7217e4fF86A",
      "function": null,
      "arguments": null,
      "transaction": {
        "type": "0x02",
        "from": "0x85752248d8cca2d9321f0278fc785738e1236ce4",
        "to": "0x8b72210866660cb4b8eff1fbde3ea7217e4ff86a",
        "gas": "0xf95d",
        "value": "0x0",
        "data": "0xd710442a0000000000000000000000000000000000000000000000000000000000000005000000000000000000000000b0202b94597f54112ee407cf454fdb25dc1dd7590000000000000000000000000000000000000000000000000000000000000006",
        "nonce": "0x5b1",
        "accessList": []
      },
      "additionalContracts": [],
      "isFixedGasLimit": false
    },
    {
      "hash": null,
      "transactionType": "CALL",
      "contractName": null,
      "contractAddress": "0x462b76B57e13A4070Ece9f5d21f6C0D2E19BbAf0",
      "function": null,
      "arguments": null,
      "transaction": {
        "type": "0x02",
        "from": "0x85752248d8cca2d9321f0278fc785738e1236ce4",
        "to": "0x462b76b57e13a4070ece9f5d21f6c0d2e19bbaf0",
        "gas": "0x216b7",
        "value": "0x0",
        "data": "0xee39043c0000000000000000000000000000000000000000000000000000000000000005000000000000000000000000b0202b94597f54112ee407cf454fdb25dc1dd7590000000000000000000000000000000000000000000000000de0b6b3a7640000",
        "nonce": "0x5b2",
        "accessList": []
      },
      "additionalContracts": [],
      "isFixedGasLimit": false
    }
  ],
  "receipts": [],
  "libraries": [],
  "pending": [],
  "returns": {},
  "timestamp": 1693556954,
  "chain": 421613,
  "multi": false,
  "commit": "3fbbd65"
}