{
  "transactions": [
    {
      "hash": null,
      "transactionType": "CALL",
      "contractName": null,
      "contractAddress": "0x663a64131e1390072D548465126e34C510e2aDE6",
      "function": null,
      "arguments": null,
      "transaction": {
        "type": "0x02",
        "from": "0x85752248d8cca2d9321f0278fc785738e1236ce4",
        "to": "0x663a64131e1390072d548465126e34c510e2ade6",
        "gas": "0xed71",
        "value": "0x0",
        "data": "0xd710442a000000000000000000000000000000000000000000000000000000000000000500000000000000000000000000000000000000000000000000000000000000000000000000000000000000000000000000000000000000000000000000000012",
        "nonce": "0x141",
        "accessList": []
      },
      "additionalContracts": [],
      "isFixedGasLimit": false
    },
    {
      "hash": null,
      "transactionType": "CALL",
      "contractName": null,
      "contractAddress": "0x1E2Fc889CE7587bD3ffA101D65a23a0CE828CEeF",
      "function": null,
      "arguments": null,
      "transaction": {
        "type": "0x02",
        "from": "0x85752248d8cca2d9321f0278fc785738e1236ce4",
        "to": "0x1e2fc889ce7587bd3ffa101d65a23a0ce828ceef",
        "gas": "0x23487",
        "value": "0x0",
        "data": "0xee39043c0000000000000000000000000000000000000000000000000000000000000005000000000000000000000000000000000000000000000000000000000000000000000000000000000000000000000000000000000000006663f303de1e8d0000",
        "nonce": "0x142",
        "accessList": []
      },
      "additionalContracts": [],
      "isFixedGasLimit": false
    },
    {
      "hash": null,
      "transactionType": "CALL",
      "contractName": null,
      "contractAddress": "0x663a64131e1390072D548465126e34C510e2aDE6",
      "function": null,
      "arguments": null,
      "transaction": {
        "type": "0x02",
        "from": "0x85752248d8cca2d9321f0278fc785738e1236ce4",
        "to": "0x663a64131e1390072d548465126e34c510e2ade6",
        "gas": "0xee8a",
        "value": "0x0",
        "data": "0xd710442a00000000000000000000000000000000000000000000000000000000000000050000000000000000000000000000b6165af19f2c87c56183115d9a52aa22dbc70000000000000000000000000000000000000000000000000000000000000006",
        "nonce": "0x143",
        "accessList": []
      },
      "additionalContracts": [],
      "isFixedGasLimit": false
    },
    {
      "hash": null,
      "transactionType": "CALL",
      "contractName": null,
      "contractAddress": "0x1E2Fc889CE7587bD3ffA101D65a23a0CE828CEeF",
      "function": null,
      "arguments": null,
      "transaction": {
        "type": "0x02",
        "from": "0x85752248d8cca2d9321f0278fc785738e1236ce4",
        "to": "0x1e2fc889ce7587bd3ffa101d65a23a0ce828ceef",
        "gas": "0x21643",
        "value": "0x0",
        "data": "0xee39043c00000000000000000000000000000000000000000000000000000000000000050000000000000000000000000000b6165af19f2c87c56183115d9a52aa22dbc70000000000000000000000000000000000000000000000000de0b6b3a7640000",
        "nonce": "0x144",
        "accessList": []
      },
      "additionalContracts": [],
      "isFixedGasLimit": false
    }
  ],
  "receipts": [],
  "libraries": [],
  "pending": [],
  "returns": {},
  "timestamp": 1690161449,
  "chain": 421613,
  "multi": false,
  "commit": "752d48c"
}