{
  "transactions": [
    {
      "hash": null,
      "transactionType": "CALL",
      "contractName": null,
      "contractAddress": "0x0DDbfC5c0953B0401d1C72e3149a00cb049835DC",
      "function": null,
      "arguments": null,
      "transaction": {
        "type": "0x02",
        "from": "0x85752248d8cca2d9321f0278fc785738e1236ce4",
        "to": "0x0ddbfc5c0953b0401d1c72e3149a00cb049835dc",
        "gas": "0xf899",
        "value": "0x0",
        "data": "0xd710442a000000000000000000000000000000000000000000000000000000000001388100000000000000000000000000000000000000000000000000000000000000000000000000000000000000000000000000000000000000000000000000000012",
        "nonce": "0x6a7",
        "accessList": []
      },
      "additionalContracts": [],
      "isFixedGasLimit": false
    },
    {
      "hash": null,
      "transactionType": "CALL",
      "contractName": null,
      "contractAddress": "0x18C26dC79B26F37302411D08E98fe6ce973Df874",
      "function": null,
      "arguments": null,
      "transaction": {
        "type": "0x02",
        "from": "0x85752248d8cca2d9321f0278fc785738e1236ce4",
        "to": "0x18c26dc79b26f37302411d08e98fe6ce973df874",
        "gas": "0x234cf",
        "value": "0x0",
        "data": "0xee39043c0000000000000000000000000000000000000000000000000000000000013881000000000000000000000000000000000000000000000000000000000000000000000000000000000000000000000000000000000000000007980b8035180000",
        "nonce": "0x6a8",
        "accessList": []
      },
      "additionalContracts": [],
      "isFixedGasLimit": false
    }
  ],
  "receipts": [],
  "libraries": [],
  "pending": [],
  "returns": {},
  "timestamp": 1695077596,
  "chain": 421613,
  "multi": false,
  "commit": "c7ccaef"
}