{
  "transactions": [
    {
      "hash": null,
      "transactionType": "CALL",
      "contractName": null,
      "contractAddress": "0x71B78385E4E661c18c77544F1e61923EAc93a30E",
      "function": null,
      "arguments": null,
      "transaction": {
        "type": "0x02",
        "from": "0x85752248d8cca2d9321f0278fc785738e1236ce4",
        "to": "0x71b78385e4e661c18c77544f1e61923eac93a30e",
        "gas": "0xf87a",
        "value": "0x0",
        "data": "0xd710442a000000000000000000000000000000000000000000000000000000000000006100000000000000000000000000000000000000000000000000000000000000000000000000000000000000000000000000000000000000000000000000000012",
        "nonce": "0x790",
        "accessList": []
      },
      "additionalContracts": [],
      "isFixedGasLimit": false
    },
    {
      "hash": null,
      "transactionType": "CALL",
      "contractName": null,
      "contractAddress": "0x2eE15a01AFaa462f032AcD4DF86753b73C681794",
      "function": null,
      "arguments": null,
      "transaction": {
        "type": "0x02",
        "from": "0x85752248d8cca2d9321f0278fc785738e1236ce4",
        "to": "0x2ee15a01afaa462f032acd4df86753b73c681794",
        "gas": "0x2155d",
        "value": "0x0",
        "data": "0xee39043c0000000000000000000000000000000000000000000000000000000000000061000000000000000000000000000000000000000000000000000000000000000000000000000000000000000000000000000000000000000bbb4ac46922490000",
        "nonce": "0x791",
        "accessList": []
      },
      "additionalContracts": [],
      "isFixedGasLimit": false
    },
    {
      "hash": null,
      "transactionType": "CALL",
      "contractName": null,
      "contractAddress": "0x71B78385E4E661c18c77544F1e61923EAc93a30E",
      "function": null,
      "arguments": null,
      "transaction": {
        "type": "0x02",
        "from": "0x85752248d8cca2d9321f0278fc785738e1236ce4",
        "to": "0x71b78385e4e661c18c77544f1e61923eac93a30e",
        "gas": "0xf9b2",
        "value": "0x0",
        "data": "0xd710442a000000000000000000000000000000000000000000000000000000000000006100000000000000000000000057546f95163291b04588a2abdc1feb0fa215561a0000000000000000000000000000000000000000000000000000000000000012",
        "nonce": "0x792",
        "accessList": []
      },
      "additionalContracts": [],
      "isFixedGasLimit": false
    },
    {
      "hash": null,
      "transactionType": "CALL",
      "contractName": null,
      "contractAddress": "0x2eE15a01AFaa462f032AcD4DF86753b73C681794",
      "function": null,
      "arguments": null,
      "transaction": {
        "type": "0x02",
        "from": "0x85752248d8cca2d9321f0278fc785738e1236ce4",
        "to": "0x2ee15a01afaa462f032acd4df86753b73c681794",
        "gas": "0x2360b",
        "value": "0x0",
        "data": "0xee39043c000000000000000000000000000000000000000000000000000000000000006100000000000000000000000057546f95163291b04588a2abdc1feb0fa215561a0000000000000000000000000000000000000000000000000de0b6b3a7640000",
        "nonce": "0x793",
        "accessList": []
      },
      "additionalContracts": [],
      "isFixedGasLimit": false
    }
  ],
  "receipts": [],
  "libraries": [],
  "pending": [],
  "returns": {},
  "timestamp": 1696888880,
  "chain": 421613,
  "multi": false,
  "commit": "c7ccaef"
}