{
  "transactions": [
    {
      "hash": null,
      "transactionType": "CALL",
      "contractName": null,
      "contractAddress": "0x32D632be3DE79C7C7685443c427CA278435E2F3b",
      "function": null,
      "arguments": null,
      "transaction": {
        "type": "0x00",
        "from": "0x85752248d8cca2d9321f0278fc785738e1236ce4",
        "to": "0x32d632be3de79c7c7685443c427ca278435e2f3b",
        "gas": "0x11522",
        "value": "0x0",
        "data": "0xa9059cbb000000000000000000000000ee45faab3d856a10a8ac03da70d8291587ed0d4300000000000000000000000000000000000000000000000000000002540be400",
        "nonce": "0x75"
      },
      "additionalContracts": [],
      "isFixedGasLimit": false
    },
    {
      "hash": null,
      "transactionType": "CALL",
      "contractName": null,
      "contractAddress": null,
      "function": null,
      "arguments": null,
      "transaction": {
        "type": "0x00",
        "from": "0x85752248d8cca2d9321f0278fc785738e1236ce4",
        "to": "0xee45faab3d856a10a8ac03da70d8291587ed0d43",
        "gas": "0x714d",
        "value": "0x8ac7230489e80000",
        "data": "0x",
        "nonce": "0x76"
      },
      "additionalContracts": [],
      "isFixedGasLimit": false
    },
    {
      "hash": null,
      "transactionType": "CALL",
      "contractName": null,
      "contractAddress": "0x32D632be3DE79C7C7685443c427CA278435E2F3b",
      "function": null,
      "arguments": null,
      "transaction": {
        "type": "0x00",
        "from": "0x85752248d8cca2d9321f0278fc785738e1236ce4",
        "to": "0x32d632be3de79c7c7685443c427ca278435e2f3b",
        "gas": "0x11522",
        "value": "0x0",
        "data": "0xa9059cbb0000000000000000000000000d9d0c3a4413e27d53b59b203f34ffedea7b659c00000000000000000000000000000000000000000000000000000002540be400",
        "nonce": "0x77"
      },
      "additionalContracts": [],
      "isFixedGasLimit": false
    },
    {
      "hash": null,
      "transactionType": "CALL",
      "contractName": null,
      "contractAddress": null,
      "function": null,
      "arguments": null,
      "transaction": {
        "type": "0x00",
        "from": "0x85752248d8cca2d9321f0278fc785738e1236ce4",
        "to": "0x0d9d0c3a4413e27d53b59b203f34ffedea7b659c",
        "gas": "0x714d",
        "value": "0x8ac7230489e80000",
        "data": "0x",
        "nonce": "0x78"
      },
      "additionalContracts": [],
      "isFixedGasLimit": false
    },
    {
      "hash": null,
      "transactionType": "CALL",
      "contractName": null,
      "contractAddress": "0x32D632be3DE79C7C7685443c427CA278435E2F3b",
      "function": null,
      "arguments": null,
      "transaction": {
        "type": "0x00",
        "from": "0x85752248d8cca2d9321f0278fc785738e1236ce4",
        "to": "0x32d632be3de79c7c7685443c427ca278435e2f3b",
        "gas": "0x11522",
        "value": "0x0",
        "data": "0xa9059cbb000000000000000000000000b822e9589b3adc71bd711d97d7e2cea0461e12c700000000000000000000000000000000000000000000000000000002540be400",
        "nonce": "0x79"
      },
      "additionalContracts": [],
      "isFixedGasLimit": false
    },
    {
      "hash": null,
      "transactionType": "CALL",
      "contractName": null,
      "contractAddress": null,
      "function": null,
      "arguments": null,
      "transaction": {
        "type": "0x00",
        "from": "0x85752248d8cca2d9321f0278fc785738e1236ce4",
        "to": "0xb822e9589b3adc71bd711d97d7e2cea0461e12c7",
        "gas": "0x714d",
        "value": "0x8ac7230489e80000",
        "data": "0x",
        "nonce": "0x7a"
      },
      "additionalContracts": [],
      "isFixedGasLimit": false
    },
    {
      "hash": null,
      "transactionType": "CALL",
      "contractName": null,
      "contractAddress": "0x32D632be3DE79C7C7685443c427CA278435E2F3b",
      "function": null,
      "arguments": null,
      "transaction": {
        "type": "0x00",
        "from": "0x85752248d8cca2d9321f0278fc785738e1236ce4",
        "to": "0x32d632be3de79c7c7685443c427ca278435e2f3b",
        "gas": "0x11522",
        "value": "0x0",
        "data": "0xa9059cbb0000000000000000000000008763b4913ccc2d1fc72009921b57bafd1831aa1700000000000000000000000000000000000000000000000000000002540be400",
        "nonce": "0x7b"
      },
      "additionalContracts": [],
      "isFixedGasLimit": false
    },
    {
      "hash": null,
      "transactionType": "CALL",
      "contractName": null,
      "contractAddress": null,
      "function": null,
      "arguments": null,
      "transaction": {
        "type": "0x00",
        "from": "0x85752248d8cca2d9321f0278fc785738e1236ce4",
        "to": "0x8763b4913ccc2d1fc72009921b57bafd1831aa17",
        "gas": "0x714d",
        "value": "0x8ac7230489e80000",
        "data": "0x",
        "nonce": "0x7c"
      },
      "additionalContracts": [],
      "isFixedGasLimit": false
    },
    {
      "hash": null,
      "transactionType": "CALL",
      "contractName": null,
      "contractAddress": "0x32D632be3DE79C7C7685443c427CA278435E2F3b",
      "function": null,
      "arguments": null,
      "transaction": {
        "type": "0x00",
        "from": "0x85752248d8cca2d9321f0278fc785738e1236ce4",
        "to": "0x32d632be3de79c7c7685443c427ca278435e2f3b",
        "gas": "0x11522",
        "value": "0x0",
        "data": "0xa9059cbb0000000000000000000000003ce9fd177f0afb7ca10a345839a714119ccda8cb00000000000000000000000000000000000000000000000000000002540be400",
        "nonce": "0x7d"
      },
      "additionalContracts": [],
      "isFixedGasLimit": false
    },
    {
      "hash": null,
      "transactionType": "CALL",
      "contractName": null,
      "contractAddress": null,
      "function": null,
      "arguments": null,
      "transaction": {
        "type": "0x00",
        "from": "0x85752248d8cca2d9321f0278fc785738e1236ce4",
        "to": "0x3ce9fd177f0afb7ca10a345839a714119ccda8cb",
        "gas": "0x714d",
        "value": "0x8ac7230489e80000",
        "data": "0x",
        "nonce": "0x7e"
      },
      "additionalContracts": [],
      "isFixedGasLimit": false
    },
    {
      "hash": null,
      "transactionType": "CALL",
      "contractName": null,
      "contractAddress": "0x32D632be3DE79C7C7685443c427CA278435E2F3b",
      "function": null,
      "arguments": null,
      "transaction": {
        "type": "0x00",
        "from": "0x85752248d8cca2d9321f0278fc785738e1236ce4",
        "to": "0x32d632be3de79c7c7685443c427ca278435e2f3b",
        "gas": "0x11522",
        "value": "0x0",
        "data": "0xa9059cbb000000000000000000000000f9e24e7d410fd222fc73a0710335b16ab794fd5900000000000000000000000000000000000000000000000000000002540be400",
        "nonce": "0x7f"
      },
      "additionalContracts": [],
      "isFixedGasLimit": false
    },
    {
      "hash": null,
      "transactionType": "CALL",
      "contractName": null,
      "contractAddress": null,
      "function": null,
      "arguments": null,
      "transaction": {
        "type": "0x00",
        "from": "0x85752248d8cca2d9321f0278fc785738e1236ce4",
        "to": "0xf9e24e7d410fd222fc73a0710335b16ab794fd59",
        "gas": "0x714d",
        "value": "0x8ac7230489e80000",
        "data": "0x",
        "nonce": "0x80"
      },
      "additionalContracts": [],
      "isFixedGasLimit": false
    },
    {
      "hash": null,
      "transactionType": "CALL",
      "contractName": null,
      "contractAddress": "0x32D632be3DE79C7C7685443c427CA278435E2F3b",
      "function": null,
      "arguments": null,
      "transaction": {
        "type": "0x00",
        "from": "0x85752248d8cca2d9321f0278fc785738e1236ce4",
        "to": "0x32d632be3de79c7c7685443c427ca278435e2f3b",
        "gas": "0x11522",
        "value": "0x0",
        "data": "0xa9059cbb000000000000000000000000c127f6f27485d0dd37fc69180a4972576ac0440b00000000000000000000000000000000000000000000000000000002540be400",
        "nonce": "0x81"
      },
      "additionalContracts": [],
      "isFixedGasLimit": false
    },
    {
      "hash": null,
      "transactionType": "CALL",
      "contractName": null,
      "contractAddress": null,
      "function": null,
      "arguments": null,
      "transaction": {
        "type": "0x00",
        "from": "0x85752248d8cca2d9321f0278fc785738e1236ce4",
        "to": "0xc127f6f27485d0dd37fc69180a4972576ac0440b",
        "gas": "0x714d",
        "value": "0x8ac7230489e80000",
        "data": "0x",
        "nonce": "0x82"
      },
      "additionalContracts": [],
      "isFixedGasLimit": false
    },
    {
      "hash": null,
      "transactionType": "CALL",
      "contractName": null,
      "contractAddress": "0x32D632be3DE79C7C7685443c427CA278435E2F3b",
      "function": null,
      "arguments": null,
      "transaction": {
        "type": "0x00",
        "from": "0x85752248d8cca2d9321f0278fc785738e1236ce4",
        "to": "0x32d632be3de79c7c7685443c427ca278435e2f3b",
        "gas": "0x11522",
        "value": "0x0",
        "data": "0xa9059cbb000000000000000000000000fa44d6b4ecee81f73623b36d6ef81e0e3dc6dea100000000000000000000000000000000000000000000000000000002540be400",
        "nonce": "0x83"
      },
      "additionalContracts": [],
      "isFixedGasLimit": false
    },
    {
      "hash": null,
      "transactionType": "CALL",
      "contractName": null,
      "contractAddress": null,
      "function": null,
      "arguments": null,
      "transaction": {
        "type": "0x00",
        "from": "0x85752248d8cca2d9321f0278fc785738e1236ce4",
        "to": "0xfa44d6b4ecee81f73623b36d6ef81e0e3dc6dea1",
        "gas": "0x714d",
        "value": "0x8ac7230489e80000",
        "data": "0x",
        "nonce": "0x84"
      },
      "additionalContracts": [],
      "isFixedGasLimit": false
    },
    {
      "hash": null,
      "transactionType": "CALL",
      "contractName": null,
      "contractAddress": "0x32D632be3DE79C7C7685443c427CA278435E2F3b",
      "function": null,
      "arguments": null,
      "transaction": {
        "type": "0x00",
        "from": "0x85752248d8cca2d9321f0278fc785738e1236ce4",
        "to": "0x32d632be3de79c7c7685443c427ca278435e2f3b",
        "gas": "0xb8de",
        "value": "0x0",
        "data": "0xa9059cbb000000000000000000000000b822e9589b3adc71bd711d97d7e2cea0461e12c700000000000000000000000000000000000000000000000000000002540be400",
        "nonce": "0x85"
      },
      "additionalContracts": [],
      "isFixedGasLimit": false
    },
    {
      "hash": null,
      "transactionType": "CALL",
      "contractName": null,
      "contractAddress": null,
      "function": null,
      "arguments": null,
      "transaction": {
        "type": "0x00",
        "from": "0x85752248d8cca2d9321f0278fc785738e1236ce4",
        "to": "0xb822e9589b3adc71bd711d97d7e2cea0461e12c7",
        "gas": "0x714d",
        "value": "0x8ac7230489e80000",
        "data": "0x",
        "nonce": "0x86"
      },
      "additionalContracts": [],
      "isFixedGasLimit": false
    },
    {
      "hash": null,
      "transactionType": "CALL",
      "contractName": null,
      "contractAddress": "0x32D632be3DE79C7C7685443c427CA278435E2F3b",
      "function": null,
      "arguments": null,
      "transaction": {
        "type": "0x00",
        "from": "0x85752248d8cca2d9321f0278fc785738e1236ce4",
        "to": "0x32d632be3de79c7c7685443c427ca278435e2f3b",
        "gas": "0x11522",
        "value": "0x0",
        "data": "0xa9059cbb000000000000000000000000bb5299284781b1c6dd3e9b7260241da42813b5e500000000000000000000000000000000000000000000000000000002540be400",
        "nonce": "0x87"
      },
      "additionalContracts": [],
      "isFixedGasLimit": false
    },
    {
      "hash": null,
      "transactionType": "CALL",
      "contractName": null,
      "contractAddress": null,
      "function": null,
      "arguments": null,
      "transaction": {
        "type": "0x00",
        "from": "0x85752248d8cca2d9321f0278fc785738e1236ce4",
        "to": "0xbb5299284781b1c6dd3e9b7260241da42813b5e5",
        "gas": "0x714d",
        "value": "0x8ac7230489e80000",
        "data": "0x",
        "nonce": "0x88"
      },
      "additionalContracts": [],
      "isFixedGasLimit": false
    },
    {
      "hash": null,
      "transactionType": "CALL",
      "contractName": null,
      "contractAddress": "0x32D632be3DE79C7C7685443c427CA278435E2F3b",
      "function": null,
      "arguments": null,
      "transaction": {
        "type": "0x00",
        "from": "0x85752248d8cca2d9321f0278fc785738e1236ce4",
        "to": "0x32d632be3de79c7c7685443c427ca278435e2f3b",
        "gas": "0x11522",
        "value": "0x0",
        "data": "0xa9059cbb00000000000000000000000086144361ba14e59d26423ff6d3e5a40495f43a6f00000000000000000000000000000000000000000000000000000002540be400",
        "nonce": "0x89"
      },
      "additionalContracts": [],
      "isFixedGasLimit": false
    },
    {
      "hash": null,
      "transactionType": "CALL",
      "contractName": null,
      "contractAddress": null,
      "function": null,
      "arguments": null,
      "transaction": {
        "type": "0x00",
        "from": "0x85752248d8cca2d9321f0278fc785738e1236ce4",
        "to": "0x86144361ba14e59d26423ff6d3e5a40495f43a6f",
        "gas": "0x714d",
        "value": "0x8ac7230489e80000",
        "data": "0x",
        "nonce": "0x8a"
      },
      "additionalContracts": [],
      "isFixedGasLimit": false
    },
    {
      "hash": null,
      "transactionType": "CALL",
      "contractName": null,
      "contractAddress": "0x32D632be3DE79C7C7685443c427CA278435E2F3b",
      "function": null,
      "arguments": null,
      "transaction": {
        "type": "0x00",
        "from": "0x85752248d8cca2d9321f0278fc785738e1236ce4",
        "to": "0x32d632be3de79c7c7685443c427ca278435e2f3b",
        "gas": "0x11522",
        "value": "0x0",
        "data": "0xa9059cbb0000000000000000000000000d5bfcb3de3c81e60ba11ea19bce7186b180552200000000000000000000000000000000000000000000000000000002540be400",
        "nonce": "0x8b"
      },
      "additionalContracts": [],
      "isFixedGasLimit": false
    },
    {
      "hash": null,
      "transactionType": "CALL",
      "contractName": null,
      "contractAddress": null,
      "function": null,
      "arguments": null,
      "transaction": {
        "type": "0x00",
        "from": "0x85752248d8cca2d9321f0278fc785738e1236ce4",
        "to": "0x0d5bfcb3de3c81e60ba11ea19bce7186b1805522",
        "gas": "0x714d",
        "value": "0x8ac7230489e80000",
        "data": "0x",
        "nonce": "0x8c"
      },
      "additionalContracts": [],
      "isFixedGasLimit": false
    },
    {
      "hash": null,
      "transactionType": "CALL",
      "contractName": null,
      "contractAddress": "0x32D632be3DE79C7C7685443c427CA278435E2F3b",
      "function": null,
      "arguments": null,
      "transaction": {
        "type": "0x00",
        "from": "0x85752248d8cca2d9321f0278fc785738e1236ce4",
        "to": "0x32d632be3de79c7c7685443c427ca278435e2f3b",
        "gas": "0x11522",
        "value": "0x0",
        "data": "0xa9059cbb0000000000000000000000001da5c062b5e3efc48d288d9abbf1fe93823db05300000000000000000000000000000000000000000000000000000002540be400",
        "nonce": "0x8d"
      },
      "additionalContracts": [],
      "isFixedGasLimit": false
    },
    {
      "hash": null,
      "transactionType": "CALL",
      "contractName": null,
      "contractAddress": null,
      "function": null,
      "arguments": null,
      "transaction": {
        "type": "0x00",
        "from": "0x85752248d8cca2d9321f0278fc785738e1236ce4",
        "to": "0x1da5c062b5e3efc48d288d9abbf1fe93823db053",
        "gas": "0x714d",
        "value": "0x8ac7230489e80000",
        "data": "0x",
        "nonce": "0x8e"
      },
      "additionalContracts": [],
      "isFixedGasLimit": false
    },
    {
      "hash": null,
      "transactionType": "CALL",
      "contractName": null,
      "contractAddress": "0x32D632be3DE79C7C7685443c427CA278435E2F3b",
      "function": null,
      "arguments": null,
      "transaction": {
        "type": "0x00",
        "from": "0x85752248d8cca2d9321f0278fc785738e1236ce4",
        "to": "0x32d632be3de79c7c7685443c427ca278435e2f3b",
        "gas": "0xb8de",
        "value": "0x0",
        "data": "0xa9059cbb000000000000000000000000c127f6f27485d0dd37fc69180a4972576ac0440b00000000000000000000000000000000000000000000000000000002540be400",
        "nonce": "0x8f"
      },
      "additionalContracts": [],
      "isFixedGasLimit": false
    },
    {
      "hash": null,
      "transactionType": "CALL",
      "contractName": null,
      "contractAddress": null,
      "function": null,
      "arguments": null,
      "transaction": {
        "type": "0x00",
        "from": "0x85752248d8cca2d9321f0278fc785738e1236ce4",
        "to": "0xc127f6f27485d0dd37fc69180a4972576ac0440b",
        "gas": "0x714d",
        "value": "0x8ac7230489e80000",
        "data": "0x",
        "nonce": "0x90"
      },
      "additionalContracts": [],
      "isFixedGasLimit": false
    },
    {
      "hash": null,
      "transactionType": "CALL",
      "contractName": null,
      "contractAddress": "0x32D632be3DE79C7C7685443c427CA278435E2F3b",
      "function": null,
      "arguments": null,
      "transaction": {
        "type": "0x00",
        "from": "0x85752248d8cca2d9321f0278fc785738e1236ce4",
        "to": "0x32d632be3de79c7c7685443c427ca278435e2f3b",
        "gas": "0x11522",
        "value": "0x0",
        "data": "0xa9059cbb0000000000000000000000008f7b9942d384b4cdafc596c375ef5bc435d401a000000000000000000000000000000000000000000000000000000002540be400",
        "nonce": "0x91"
      },
      "additionalContracts": [],
      "isFixedGasLimit": false
    },
    {
      "hash": null,
      "transactionType": "CALL",
      "contractName": null,
      "contractAddress": null,
      "function": null,
      "arguments": null,
      "transaction": {
        "type": "0x00",
        "from": "0x85752248d8cca2d9321f0278fc785738e1236ce4",
        "to": "0x8f7b9942d384b4cdafc596c375ef5bc435d401a0",
        "gas": "0x714d",
        "value": "0x8ac7230489e80000",
        "data": "0x",
        "nonce": "0x92"
      },
      "additionalContracts": [],
      "isFixedGasLimit": false
    },
    {
      "hash": null,
      "transactionType": "CALL",
      "contractName": null,
      "contractAddress": "0x32D632be3DE79C7C7685443c427CA278435E2F3b",
      "function": null,
      "arguments": null,
      "transaction": {
        "type": "0x00",
        "from": "0x85752248d8cca2d9321f0278fc785738e1236ce4",
        "to": "0x32d632be3de79c7c7685443c427ca278435e2f3b",
        "gas": "0x11522",
        "value": "0x0",
        "data": "0xa9059cbb000000000000000000000000abc8222f3e4c72c05630b061bf65d56a6d15f04200000000000000000000000000000000000000000000000000000002540be400",
        "nonce": "0x93"
      },
      "additionalContracts": [],
      "isFixedGasLimit": false
    },
    {
      "hash": null,
      "transactionType": "CALL",
      "contractName": null,
      "contractAddress": null,
      "function": null,
      "arguments": null,
      "transaction": {
        "type": "0x00",
        "from": "0x85752248d8cca2d9321f0278fc785738e1236ce4",
        "to": "0xabc8222f3e4c72c05630b061bf65d56a6d15f042",
        "gas": "0x714d",
        "value": "0x8ac7230489e80000",
        "data": "0x",
        "nonce": "0x94"
      },
      "additionalContracts": [],
      "isFixedGasLimit": false
    },
    {
      "hash": null,
      "transactionType": "CALL",
      "contractName": null,
      "contractAddress": "0x32D632be3DE79C7C7685443c427CA278435E2F3b",
      "function": null,
      "arguments": null,
      "transaction": {
        "type": "0x00",
        "from": "0x85752248d8cca2d9321f0278fc785738e1236ce4",
        "to": "0x32d632be3de79c7c7685443c427ca278435e2f3b",
        "gas": "0x11522",
        "value": "0x0",
        "data": "0xa9059cbb000000000000000000000000997afb2c8d6f4f680154366e3bdbbf460766f5f500000000000000000000000000000000000000000000000000000002540be400",
        "nonce": "0x95"
      },
      "additionalContracts": [],
      "isFixedGasLimit": false
    },
    {
      "hash": null,
      "transactionType": "CALL",
      "contractName": null,
      "contractAddress": null,
      "function": null,
      "arguments": null,
      "transaction": {
        "type": "0x00",
        "from": "0x85752248d8cca2d9321f0278fc785738e1236ce4",
        "to": "0x997afb2c8d6f4f680154366e3bdbbf460766f5f5",
        "gas": "0x714d",
        "value": "0x8ac7230489e80000",
        "data": "0x",
        "nonce": "0x96"
      },
      "additionalContracts": [],
      "isFixedGasLimit": false
    },
    {
      "hash": null,
      "transactionType": "CALL",
      "contractName": null,
      "contractAddress": "0x32D632be3DE79C7C7685443c427CA278435E2F3b",
      "function": null,
      "arguments": null,
      "transaction": {
        "type": "0x00",
        "from": "0x85752248d8cca2d9321f0278fc785738e1236ce4",
        "to": "0x32d632be3de79c7c7685443c427ca278435e2f3b",
        "gas": "0x11522",
        "value": "0x0",
        "data": "0xa9059cbb000000000000000000000000011c62434f17b3d690e8976b7468e4eaaf778fa100000000000000000000000000000000000000000000000000000002540be400",
        "nonce": "0x97"
      },
      "additionalContracts": [],
      "isFixedGasLimit": false
    },
    {
      "hash": null,
      "transactionType": "CALL",
      "contractName": null,
      "contractAddress": null,
      "function": null,
      "arguments": null,
      "transaction": {
        "type": "0x00",
        "from": "0x85752248d8cca2d9321f0278fc785738e1236ce4",
        "to": "0x011c62434f17b3d690e8976b7468e4eaaf778fa1",
        "gas": "0x714d",
        "value": "0x8ac7230489e80000",
        "data": "0x",
        "nonce": "0x98"
      },
      "additionalContracts": [],
      "isFixedGasLimit": false
    },
    {
      "hash": null,
      "transactionType": "CALL",
      "contractName": null,
      "contractAddress": "0x32D632be3DE79C7C7685443c427CA278435E2F3b",
      "function": null,
      "arguments": null,
      "transaction": {
        "type": "0x00",
        "from": "0x85752248d8cca2d9321f0278fc785738e1236ce4",
        "to": "0x32d632be3de79c7c7685443c427ca278435e2f3b",
        "gas": "0x11522",
        "value": "0x0",
        "data": "0xa9059cbb000000000000000000000000ac83762f7ba18b863c34267d7f6f3116f9813a9100000000000000000000000000000000000000000000000000000002540be400",
        "nonce": "0x99"
      },
      "additionalContracts": [],
      "isFixedGasLimit": false
    },
    {
      "hash": null,
      "transactionType": "CALL",
      "contractName": null,
      "contractAddress": null,
      "function": null,
      "arguments": null,
      "transaction": {
        "type": "0x00",
        "from": "0x85752248d8cca2d9321f0278fc785738e1236ce4",
        "to": "0xac83762f7ba18b863c34267d7f6f3116f9813a91",
        "gas": "0x714d",
        "value": "0x8ac7230489e80000",
        "data": "0x",
        "nonce": "0x9a"
      },
      "additionalContracts": [],
      "isFixedGasLimit": false
    },
    {
      "hash": null,
      "transactionType": "CALL",
      "contractName": null,
      "contractAddress": "0x32D632be3DE79C7C7685443c427CA278435E2F3b",
      "function": null,
      "arguments": null,
      "transaction": {
        "type": "0x00",
        "from": "0x85752248d8cca2d9321f0278fc785738e1236ce4",
        "to": "0x32d632be3de79c7c7685443c427ca278435e2f3b",
        "gas": "0x11522",
        "value": "0x0",
        "data": "0xa9059cbb00000000000000000000000059d2735ecd289f999246944bcc4f5bbcb067c13800000000000000000000000000000000000000000000000000000002540be400",
        "nonce": "0x9b"
      },
      "additionalContracts": [],
      "isFixedGasLimit": false
    },
    {
      "hash": null,
      "transactionType": "CALL",
      "contractName": null,
      "contractAddress": null,
      "function": null,
      "arguments": null,
      "transaction": {
        "type": "0x00",
        "from": "0x85752248d8cca2d9321f0278fc785738e1236ce4",
        "to": "0x59d2735ecd289f999246944bcc4f5bbcb067c138",
        "gas": "0x714d",
        "value": "0x8ac7230489e80000",
        "data": "0x",
        "nonce": "0x9c"
      },
      "additionalContracts": [],
      "isFixedGasLimit": false
    },
    {
      "hash": null,
      "transactionType": "CALL",
      "contractName": null,
      "contractAddress": "0x32D632be3DE79C7C7685443c427CA278435E2F3b",
      "function": null,
      "arguments": null,
      "transaction": {
        "type": "0x00",
        "from": "0x85752248d8cca2d9321f0278fc785738e1236ce4",
        "to": "0x32d632be3de79c7c7685443c427ca278435e2f3b",
        "gas": "0x11522",
        "value": "0x0",
        "data": "0xa9059cbb000000000000000000000000470d29cb2017e91560362a1d9115a9a286bb456600000000000000000000000000000000000000000000000000000002540be400",
        "nonce": "0x9d"
      },
      "additionalContracts": [],
      "isFixedGasLimit": false
    },
    {
      "hash": null,
      "transactionType": "CALL",
      "contractName": null,
      "contractAddress": null,
      "function": null,
      "arguments": null,
      "transaction": {
        "type": "0x00",
        "from": "0x85752248d8cca2d9321f0278fc785738e1236ce4",
        "to": "0x470d29cb2017e91560362a1d9115a9a286bb4566",
        "gas": "0x714d",
        "value": "0x8ac7230489e80000",
        "data": "0x",
        "nonce": "0x9e"
      },
      "additionalContracts": [],
      "isFixedGasLimit": false
    },
    {
      "hash": null,
      "transactionType": "CALL",
      "contractName": null,
      "contractAddress": "0x32D632be3DE79C7C7685443c427CA278435E2F3b",
      "function": null,
      "arguments": null,
      "transaction": {
        "type": "0x00",
        "from": "0x85752248d8cca2d9321f0278fc785738e1236ce4",
        "to": "0x32d632be3de79c7c7685443c427ca278435e2f3b",
        "gas": "0x11522",
        "value": "0x0",
        "data": "0xa9059cbb0000000000000000000000000c226b4bf2be96de403cc3dfc4e9072d883afaf400000000000000000000000000000000000000000000000000000002540be400",
        "nonce": "0x9f"
      },
      "additionalContracts": [],
      "isFixedGasLimit": false
    },
    {
      "hash": null,
      "transactionType": "CALL",
      "contractName": null,
      "contractAddress": null,
      "function": null,
      "arguments": null,
      "transaction": {
        "type": "0x00",
        "from": "0x85752248d8cca2d9321f0278fc785738e1236ce4",
        "to": "0x0c226b4bf2be96de403cc3dfc4e9072d883afaf4",
        "gas": "0x714d",
        "value": "0x8ac7230489e80000",
        "data": "0x",
        "nonce": "0xa0"
      },
      "additionalContracts": [],
      "isFixedGasLimit": false
    },
    {
      "hash": null,
      "transactionType": "CALL",
      "contractName": null,
      "contractAddress": "0x32D632be3DE79C7C7685443c427CA278435E2F3b",
      "function": null,
      "arguments": null,
      "transaction": {
        "type": "0x00",
        "from": "0x85752248d8cca2d9321f0278fc785738e1236ce4",
        "to": "0x32d632be3de79c7c7685443c427ca278435e2f3b",
        "gas": "0x11522",
        "value": "0x0",
        "data": "0xa9059cbb0000000000000000000000006e6d31c25507f180a2e8061580f416ea61923f4700000000000000000000000000000000000000000000000000000002540be400",
        "nonce": "0xa1"
      },
      "additionalContracts": [],
      "isFixedGasLimit": false
    },
    {
      "hash": null,
      "transactionType": "CALL",
      "contractName": null,
      "contractAddress": null,
      "function": null,
      "arguments": null,
      "transaction": {
        "type": "0x00",
        "from": "0x85752248d8cca2d9321f0278fc785738e1236ce4",
        "to": "0x6e6d31c25507f180a2e8061580f416ea61923f47",
        "gas": "0x714d",
        "value": "0x8ac7230489e80000",
        "data": "0x",
        "nonce": "0xa2"
      },
      "additionalContracts": [],
      "isFixedGasLimit": false
    },
    {
      "hash": null,
      "transactionType": "CALL",
      "contractName": null,
      "contractAddress": "0x32D632be3DE79C7C7685443c427CA278435E2F3b",
      "function": null,
      "arguments": null,
      "transaction": {
        "type": "0x00",
        "from": "0x85752248d8cca2d9321f0278fc785738e1236ce4",
        "to": "0x32d632be3de79c7c7685443c427ca278435e2f3b",
        "gas": "0x11522",
        "value": "0x0",
        "data": "0xa9059cbb00000000000000000000000090892b393de832c55ad4b9d1cb30c02868ccdbfc00000000000000000000000000000000000000000000000000000002540be400",
        "nonce": "0xa3"
      },
      "additionalContracts": [],
      "isFixedGasLimit": false
    },
    {
      "hash": null,
      "transactionType": "CALL",
      "contractName": null,
      "contractAddress": null,
      "function": null,
      "arguments": null,
      "transaction": {
        "type": "0x00",
        "from": "0x85752248d8cca2d9321f0278fc785738e1236ce4",
        "to": "0x90892b393de832c55ad4b9d1cb30c02868ccdbfc",
        "gas": "0x714d",
        "value": "0x8ac7230489e80000",
        "data": "0x",
        "nonce": "0xa4"
      },
      "additionalContracts": [],
      "isFixedGasLimit": false
    }
  ],
  "receipts": [],
  "libraries": [],
  "pending": [],
  "returns": {},
  "timestamp": 1691179854,
  "chain": 56,
  "multi": false,
  "commit": "4388f34"
}