{
  "transactions": [
    {
      "hash": null,
      "transactionType": "CALL",
      "contractName": null,
      "contractAddress": "0x32B39d8CEA245A3D3e24C7a3b00De9A7fAE50311",
      "function": null,
      "arguments": null,
      "transaction": {
        "type": "0x00",
        "from": "0x85752248d8cca2d9321f0278fc785738e1236ce4",
        "to": "0x32b39d8cea245a3d3e24c7a3b00de9a7fae50311",
        "gas": "0xfa2d",
        "value": "0x0",
        "data": "0x331f570300000000000000000000000000000000000000000000000000000000000000000000000000000000000000000000000000000000000000000000000000000000",
        "nonce": "0x4f4"
      },
      "additionalContracts": [],
      "isFixedGasLimit": false
    },
    {
      "hash": null,
      "transactionType": "CALL",
      "contractName": null,
      "contractAddress": "0x57546f95163291b04588a2aBDC1FeB0FA215561A",
      "function": null,
      "arguments": null,
      "transaction": {
        "type": "0x00",
        "from": "0x85752248d8cca2d9321f0278fc785738e1236ce4",
        "to": "0x57546f95163291b04588a2abdc1feb0fa215561a",
        "gas": "0xf922",
        "value": "0x0",
        "data": "0x095ea7b300000000000000000000000032b39d8cea245a3d3e24c7a3b00de9a7fae503110000000000000000000000000000000000000000000000000000000000000001",
        "nonce": "0x4f5"
      },
      "additionalContracts": [],
      "isFixedGasLimit": false
    },
    {
      "hash": null,
      "transactionType": "CALL",
      "contractName": null,
      "contractAddress": "0x32B39d8CEA245A3D3e24C7a3b00De9A7fAE50311",
      "function": null,
      "arguments": null,
      "transaction": {
        "type": "0x00",
        "from": "0x85752248d8cca2d9321f0278fc785738e1236ce4",
        "to": "0x32b39d8cea245a3d3e24c7a3b00de9a7fae50311",
        "gas": "0x1a7b8",
        "value": "0x0",
        "data": "0x331f570300000000000000000000000057546f95163291b04588a2abdc1feb0fa215561a00000000000000000000000085752248d8cca2d9321f0278fc785738e1236ce4",
        "nonce": "0x4f6"
      },
      "additionalContracts": [],
      "isFixedGasLimit": false
    }
  ],
  "receipts": [],
  "libraries": [],
  "pending": [],
  "returns": {},
  "timestamp": 1696888799,
  "chain": 97,
  "multi": false,
  "commit": "c7ccaef"
}