{
  "transactions": [
    {
      "hash": null,
      "transactionType": "CALL",
      "contractName": null,
      "contractAddress": "0xA09DeF2a12C852663769643311d24132A11397B9",
      "function": null,
      "arguments": null,
      "transaction": {
        "type": "0x02",
        "from": "0x85752248d8cca2d9321f0278fc785738e1236ce4",
        "to": "0xa09def2a12c852663769643311d24132a11397b9",
        "gas": "0xfa2d",
        "value": "0x0",
        "data": "0x331f570300000000000000000000000000000000000000000000000000000000000000000000000000000000000000000000000000000000000000000000000000000000",
        "nonce": "0xb13",
        "accessList": []
      },
      "additionalContracts": [],
      "isFixedGasLimit": false
    },
    {
      "hash": null,
      "transactionType": "CALL",
      "contractName": null,
      "contractAddress": "0xb0202B94597F54112Ee407CF454fDB25Dc1DD759",
      "function": null,
      "arguments": null,
      "transaction": {
        "type": "0x02",
        "from": "0x85752248d8cca2d9321f0278fc785738e1236ce4",
        "to": "0xb0202b94597f54112ee407cf454fdb25dc1dd759",
        "gas": "0xf922",
        "value": "0x0",
        "data": "0x095ea7b3000000000000000000000000a09def2a12c852663769643311d24132a11397b90000000000000000000000000000000000000000000000000000000000000001",
        "nonce": "0xb14",
        "accessList": []
      },
      "additionalContracts": [],
      "isFixedGasLimit": false
    },
    {
      "hash": null,
      "transactionType": "CALL",
      "contractName": null,
      "contractAddress": "0xA09DeF2a12C852663769643311d24132A11397B9",
      "function": null,
      "arguments": null,
      "transaction": {
        "type": "0x02",
        "from": "0x85752248d8cca2d9321f0278fc785738e1236ce4",
        "to": "0xa09def2a12c852663769643311d24132a11397b9",
        "gas": "0x1a7b8",
        "value": "0x0",
        "data": "0x331f5703000000000000000000000000b0202b94597f54112ee407cf454fdb25dc1dd75900000000000000000000000085752248d8cca2d9321f0278fc785738e1236ce4",
        "nonce": "0xb15",
        "accessList": []
      },
      "additionalContracts": [],
      "isFixedGasLimit": false
    }
  ],
  "receipts": [],
  "libraries": [],
  "pending": [],
  "returns": {},
  "timestamp": 1694060150,
  "chain": 5,
  "multi": false,
  "commit": "f263816"
}