{
  "transactions": [
    {
      "hash": null,
      "transactionType": "CALL",
      "contractName": null,
      "contractAddress": "0x9bf0F4739cB2FE32484C7567c2719be9EAEFf06B",
      "function": null,
      "arguments": null,
      "transaction": {
        "type": "0x02",
        "from": "0xc789bbc077ddaa59b9dac1fae6fddda20cc664d7",
        "to": "0x9bf0f4739cb2fe32484c7567c2719be9eaeff06b",
        "gas": "0xfa2d",
        "value": "0x0",
        "data": "0x331f570300000000000000000000000000000000000000000000000000000000000000000000000000000000000000000000000000000000000000000000000000000000",
        "nonce": "0x3",
        "accessList": []
      },
      "additionalContracts": [],
      "isFixedGasLimit": false
    },
    {
      "hash": null,
      "transactionType": "CALL",
      "contractName": null,
      "contractAddress": "0xdAC17F958D2ee523a2206206994597C13D831ec7",
      "function": null,
      "arguments": null,
      "transaction": {
        "type": "0x02",
        "from": "0xc789bbc077ddaa59b9dac1fae6fddda20cc664d7",
        "to": "0xdac17f958d2ee523a2206206994597c13d831ec7",
        "gas": "0x105d0",
        "value": "0x0",
        "data": "0x095ea7b30000000000000000000000009bf0f4739cb2fe32484c7567c2719be9eaeff06b0000000000000000000000000000000000000000000000000000000000000001",
        "nonce": "0x4",
        "accessList": []
      },
      "additionalContracts": [],
      "isFixedGasLimit": false
    },
    {
      "hash": null,
      "transactionType": "CALL",
      "contractName": null,
      "contractAddress": "0x9bf0F4739cB2FE32484C7567c2719be9EAEFf06B",
      "function": null,
      "arguments": null,
      "transaction": {
        "type": "0x02",
        "from": "0xc789bbc077ddaa59b9dac1fae6fddda20cc664d7",
        "to": "0x9bf0f4739cb2fe32484c7567c2719be9eaeff06b",
        "gas": "0x204d0",
        "value": "0x0",
        "data": "0x331f5703000000000000000000000000dac17f958d2ee523a2206206994597c13d831ec7000000000000000000000000c789bbc077ddaa59b9dac1fae6fddda20cc664d7",
        "nonce": "0x5",
        "accessList": []
      },
      "additionalContracts": [],
      "isFixedGasLimit": false
    }
  ],
  "receipts": [],
  "libraries": [],
  "pending": [],
  "returns": {},
  "timestamp": 1693568751,
  "chain": 1,
  "multi": false,
  "commit": "3fbbd65"
}