{
  "transactions": [
    {
      "hash": null,
      "transactionType": "CALL",
      "contractName": null,
      "contractAddress": "0x84520c60b5625b8dE5708257f330dfA3eDAA7C5E",
      "function": null,
      "arguments": null,
      "transaction": {
        "type": "0x02",
        "from": "0x85752248d8cca2d9321f0278fc785738e1236ce4",
        "to": "0x84520c60b5625b8de5708257f330dfa3edaa7c5e",
        "gas": "0x36062",
        "value": "0x6f05b59d3b20000",
        "data": "0x1587e558",
        "nonce": "0x9ea",
        "accessList": []
      },
      "additionalContracts": [],
      "isFixedGasLimit": false
    }
  ],
  "receipts": [],
  "libraries": [],
  "pending": [],
  "returns": {},
  "timestamp": 1691450492,
  "chain": 5,
  "multi": false,
  "commit": "4388f34"
}