{
  "transactions": [
    {
      "hash": null,
      "transactionType": "CALL",
      "contractName": null,
      "contractAddress": "0x93A0E944a8666de56FC579fF7B6ebb5CDf318ea9",
      "function": null,
      "arguments": null,
      "transaction": {
        "type": "0x02",
        "from": "0x85752248d8cca2d9321f0278fc785738e1236ce4",
        "to": "0x93a0e944a8666de56fc579ff7b6ebb5cdf318ea9",
        "gas": "0x36062",
        "value": "0x6f05b59d3b20000",
        "data": "0x1587e558",
        "nonce": "0x842",
        "accessList": []
      },
      "additionalContracts": [],
      "isFixedGasLimit": false
    }
  ],
  "receipts": [],
  "libraries": [],
  "pending": [],
  "returns": {},
  "timestamp": 1690331449,
  "chain": 5,
  "multi": false,
  "commit": "ee21784"
}