{
  "transactions": [
    {
      "hash": null,
      "transactionType": "CALL",
      "contractName": null,
      "contractAddress": "0x1d7072d032283e055Cf7B2636Ae4aE73cC7B0612",
      "function": null,
      "arguments": null,
      "transaction": {
        "type": "0x02",
        "from": "0x85752248d8cca2d9321f0278fc785738e1236ce4",
        "to": "0x1d7072d032283e055cf7b2636ae4ae73cc7b0612",
        "gas": "0x10845",
        "value": "0x0",
        "data": "0x095ea7b30000000000000000000000007a5156e6d872f12e89e768e07c90f29e793d9879000000000000000000000000000000000000000000003f870857a3e0e3800000",
        "nonce": "0xab2",
        "accessList": []
      },
      "additionalContracts": [],
      "isFixedGasLimit": false
    },
    {
      "hash": null,
      "transactionType": "CALL",
      "contractName": null,
      "contractAddress": "0xFE0B7f86e43D811B63A10eAC374E1A98932C975c",
      "function": null,
      "arguments": null,
      "transaction": {
        "type": "0x02",
        "from": "0x85752248d8cca2d9321f0278fc785738e1236ce4",
        "to": "0xfe0b7f86e43d811b63a10eac374e1a98932c975c",
        "gas": "0x107ff",
        "value": "0x0",
        "data": "0x095ea7b30000000000000000000000007a5156e6d872f12e89e768e07c90f29e793d9879000000000000000000000000000000000000000000000000000000174876e800",
        "nonce": "0xab3",
        "accessList": []
      },
      "additionalContracts": [],
      "isFixedGasLimit": false
    },
    {
      "hash": null,
      "transactionType": "CALL",
      "contractName": null,
      "contractAddress": "0x7a5156E6D872f12e89e768e07c90f29E793d9879",
      "function": null,
      "arguments": null,
      "transaction": {
        "type": "0x02",
        "from": "0x85752248d8cca2d9321f0278fc785738e1236ce4",
        "to": "0x7a5156e6d872f12e89e768e07c90f29e793d9879",
        "gas": "0x59ba3",
        "value": "0x0",
        "data": "0x0c51b88f000000000000000000000000fe0b7f86e43d811b63a10eac374e1a98932c975c000000000000000000000000000000000000000000000000000000174876e8000000000000000000000000000000000000000000000000000000000000918458",
        "nonce": "0xab4",
        "accessList": []
      },
      "additionalContracts": [],
      "isFixedGasLimit": false
    },
    {
      "hash": null,
      "transactionType": "CALL",
      "contractName": null,
      "contractAddress": "0x7a5156E6D872f12e89e768e07c90f29E793d9879",
      "function": null,
      "arguments": null,
      "transaction": {
        "type": "0x02",
        "from": "0x85752248d8cca2d9321f0278fc785738e1236ce4",
        "to": "0x7a5156e6d872f12e89e768e07c90f29e793d9879",
        "gas": "0x557ab",
        "value": "0x0",
        "data": "0x0c51b88f0000000000000000000000001d7072d032283e055cf7b2636ae4ae73cc7b0612000000000000000000000000000000000000000000003f870857a3e0e38000000000000000000000000000000000000000000000000000000000000000918458",
        "nonce": "0xab5",
        "accessList": []
      },
      "additionalContracts": [],
      "isFixedGasLimit": false
    }
  ],
  "receipts": [],
  "libraries": [],
  "pending": [],
  "returns": {},
  "timestamp": 1692672648,
  "chain": 5,
  "multi": false,
  "commit": "c856ad3"
}